…
``` r
UniqueMethod(CountsALL, "Species")
```

    ## [1] "UVC"

    ## Joining, by = "Species"

    ## # A tibble: 23 x 1
    ##    Species                    
    ##    <fct>                      
    ##  1 Cirrhitus rivulatus        
    ##  2 Xenichthys agassizii       
    ##  3 Aetobatus ocellatus        
    ##  4 Malacoctenus tetranemus    
    ##  5 Arothron hispidus          
    ##  6 Calamus brachysomus        
    ##  7 Lutjanus jordani           
    ##  8 Apogon atradorsatus        
    ##  9 Odontoscion eurymesops     
    ## 10 Ophioblennius steindachneri
    ## # ... with 13 more rows
    ## [1] "UVC per bioregion"

    ## Joining, by = c("Species", "Bioregion")

    ## # A tibble: 42 x 2
    ## # Groups:   Bioregion [2]
    ##    Species                 Bioregion
    ##    <fct>                   <chr>    
    ##  1 Lutjanus aratus         CSE      
    ##  2 Cirrhitus rivulatus     CSE      
    ##  3 Xenichthys agassizii    CSE      
    ##  4 Aetobatus ocellatus     CSE      
    ##  5 Malacoctenus tetranemus CSE      
    ##  6 Arothron hispidus       CSE      
    ##  7 Calamus brachysomus     CSE      
    ##  8 Lutjanus jordani        CSE      
    ##  9 Apogon atradorsatus     CSE      
    ## 10 Odontoscion eurymesops  CSE      
    ## # ... with 32 more rows
    ## [1] "BRUV"
…
    ## Joining, by = c("Species", "Bioregion")

    ## # A tibble: 38 x 2
    ## # Groups:   Bioregion [2]
    ##    Species                   Bioregion
    ##    <fct>                     <chr>    
    ##  1 Aetobatus laticeps        CSE      
    ##  2 Eucinostomus currani      CSE      
    ##  3 Arothron meleagris        CSE      
    ##  4 Thalassoma grammaticum    CSE      
    ##  5 Scomberomorus sierra      CSE      
    ##  6 Haemulon steindachneri    CSE      
    ##  7 Orthopristis lethopristis CSE      
    ##  8 Orthopristis cantharinus  CSE      
    ##  9 Serranus psittacinus      CSE      
    ## 10 Selar crumenophthalmus    CSE      
    ## # ... with 28 more rows
…
